Chapter 3 - Data Transformation using Tidyverse
…
With dplyr, we will use the very powerful, and easy to understand, group_by function.

starwars %>%
  group_by(species) %>%
  summarise(
    mean_height = mean(height, na.rm = T),
    sd_height = sd(height, na.rm = T)
  )

## # A tibble: 38 x 3
##    species   mean_height sd_height
##    <chr>           <dbl>     <dbl>
##  1 <NA>              160      42.7
##  2 Aleena             79      NA  
##  3 Besalisk          198      NA  
##  4 Cerean            198      NA  
##  5 Chagrian          196      NA  
##  6 Clawdite          168      NA  
##  7 Droid             140      52.0
##  8 Dug               112      NA  
##  9 Ewok               88      NA  
## 10 Geonosian         183      NA  
## #  with 28 more rows

Quick Exercise

What are the average weights for all humans stratified by sex?

dplyr Verbs

select

select picks out columns by names or index.

starwars %>%
  select(name:mass, gender, 9)

## # A tibble: 87 x 5
##    name               height  mass gender homeworld
##    <chr>               <int> <dbl> <chr>  <chr>    
##  1 Luke Skywalker        172    77 male   Tatooine 
##  2 C-3PO                 167    75 <NA>   Tatooine 
##  3 R2-D2                  96    32 <NA>   Naboo    
##  4 Darth Vader           202   136 male   Tatooine 
##  5 Leia Organa           150    49 female Alderaan 
##  6 Owen Lars             178   120 male   Tatooine 
##  7 Beru Whitesun lars    165    75 female Tatooine 
##  8 R5-D4                  97    32 <NA>   Tatooine 
##  9 Biggs Darklighter     183    84 male   Tatooine 
## 10 Obi-Wan Kenobi        182    77 male   Stewjon  
## #  with 77 more rows

You can use the - negative sign to indicate that you dont want certain column(s).

starwars %>%
  select(-(3:13))

## # A tibble: 87 x 2
##    name               height
##    <chr>               <int>
##  1 Luke Skywalker        172
##  2 C-3PO                 167
##  3 R2-D2                  96
##  4 Darth Vader           202
##  5 Leia Organa           150
##  6 Owen Lars             178
##  7 Beru Whitesun lars    165
##  8 R5-D4                  97
##  9 Biggs Darklighter     183
## 10 Obi-Wan Kenobi        182
## #  with 77 more rows

There are also a few helper functions in dplyr that can help you quickly select out columns that fit your criteria.

starwars %>%
  select(contains("color"))

## # A tibble: 87 x 3
##    hair_color    skin_color  eye_color
##    <chr>         <chr>       <chr>    
##  1 blond         fair        blue     
##  2 <NA>          gold        yellow   
##  3 <NA>          white, blue red      
##  4 none          white       yellow   
##  5 brown         light       brown    
##  6 brown, grey   light       blue     
##  7 brown         light       blue     
##  8 <NA>          white, red  red      
##  9 black         light       brown    
## 10 auburn, white fair        blue-gray
## #  with 77 more rows
…
##  [1] "name"       "height"     "mass"       "hair_color" "skin_color"
##  [6] "eye_color"  "birth_year" "gender"     "homeworld"  "species"   
## [11] "films"      "vehicles"   "starships" 
## 
## $class
## [1] "grouped_df" "tbl_df"     "tbl"        "data.frame"
## 
## $row.names
##  [1]  1  2  3  4  5  6  7  8  9 10 11 12 13 14 15 16 17 18 19 20 21 22 23
## [24] 24 25 26 27 28 29 30 31 32 33 34 35 36 37 38 39 40 41 42 43 44 45 46
## [47] 47 48 49 50 51 52 53 54 55 56 57 58 59 60 61 62 63 64 65 66 67 68 69
## [70] 70 71 72 73 74 75 76 77 78 79 80 81 82 83 84 85 86 87
## 
## $groups
## # A tibble: 43 x 3
##    gender        species    .rows    
##    <chr>         <chr>      <list>   
##  1 <NA>          Droid      <int [3]>
##  2 female        <NA>       <int [3]>
##  3 female        Clawdite   <int [1]>
##  4 female        Human      <int [9]>
##  5 female        Kaminoan   <int [1]>
##  6 female        Mirialan   <int [2]>
##  7 female        Tholothian <int [1]>
##  8 female        Togruta    <int [1]>
##  9 female        Twi'lek    <int [1]>
## 10 hermaphrodite Hutt       <int [1]>
## #  with 33 more rows
…
## # A tibble: 3 x 7
##      id test1_v1 test1_v2 test1_v3 test2_v1 test2_v2 test2_v3
##   <dbl>    <int>    <int>    <int>    <int>    <int>    <int>
## 1     1       57       91       21       23       71       48
## 2     2       92        5      100       32        5       27
## 3     3       96       74       61       97       38       26

gather()

gather collects data from all specified columns (if not specified, all columns) and turned them from columns to rows. Column names go to the key column while values go to the value column.

gather(messy_dt, "key", "value")

## # A tibble: 21 x 2
##    key      value
##    <chr>    <dbl>
##  1 id           1
##  2 id           2
##  3 id           3
##  4 test1_v1    57
##  5 test1_v1    92
##  6 test1_v1    96
##  7 test1_v2    91
##  8 test1_v2     5
##  9 test1_v2    74
## 10 test1_v3    21
## #  with 11 more rows
…
However, if you have a number of visits, its better to let the calculation goes automatically.

gap_analysis <- dt %>%
  select(id:group, v1_gaitspeed:v3_gaitspeed) %>%
  gather("key", "value", v1_gaitspeed:v3_gaitspeed) %>%
  filter(!is.na(value)) %>%
  group_by(id) %>%
  mutate(gap = value - lag(value)) %>%
  arrange(id)
gap_analysis

## # A tibble: 266 x 5
## # Groups:   id [100]
##       id group key          value    gap
##    <int> <chr> <chr>        <dbl>  <dbl>
##  1     1 A     v1_gaitspeed 1.06  NA    
##  2     1 A     v2_gaitspeed 1.27   0.205
##  3     2 B     v1_gaitspeed 0.759 NA    
##  4     2 B     v2_gaitspeed 1.17   0.410
##  5     2 B     v3_gaitspeed 1.46   0.289
##  6     3 A     v1_gaitspeed 0.894 NA    
##  7     3 A     v2_gaitspeed 0.571 -0.322
##  8     3 A     v3_gaitspeed 0.924  0.353
##  9     4 A     v2_gaitspeed 0.722 NA    
## 10     4 A     v3_gaitspeed 1.28   0.562
## #  with 256 more rows
…
