Modeling
…
broom also comes with 2 other verbs: glance() and augment(). The prior one provides a table of summary of goodness of fit measures. The later one provides how individual data points contributes to the model.

glance(fit)

## # A tibble: 1 x 11
##   r.squared adj.r.squared sigma statistic  p.value    df logLik   AIC   BIC
##       <dbl>         <dbl> <dbl>     <dbl>    <dbl> <int>  <dbl> <dbl> <dbl>
## 1     0.827         0.815  2.59      69.2 9.11e-12     3  -74.3  157.  163.
## #  with 2 more variables: deviance <dbl>, df.residual <int>

augment(fit)

## # A tibble: 32 x 11
##    .rownames   mpg    wt    hp .fitted .se.fit .resid   .hat .sigma .cooksd
##    <chr>     <dbl> <dbl> <dbl>   <dbl>   <dbl>  <dbl>  <dbl>  <dbl>   <dbl>
##  1 Mazda RX4  21    2.62   110    23.6   0.546 -2.57  0.0443   2.59 1.59e-2
##  2 Mazda RX  21    2.88   110    22.6   0.522 -1.58  0.0405   2.62 5.46e-3
##  3 Datsun 7  22.8  2.32    93    25.3   0.636 -2.48  0.0602   2.59 2.07e-2
##  4 Hornet 4  21.4  3.22   110    21.3   0.565  0.135 0.0475   2.64 4.72e-5
##  5 Hornet S  18.7  3.44   175    18.3   0.498  0.373 0.0369   2.64 2.74e-4
##  6 Valiant    18.1  3.46   105    20.5   0.672 -2.37  0.0672   2.60 2.16e-2
##  7 Duster 3  14.3  3.57   245    15.6   0.887 -1.30  0.117    2.63 1.26e-2
##  8 Merc 240D  24.4  3.19    62    22.9   0.882  1.51  0.116    2.62 1.68e-2
##  9 Merc 230   22.8  3.15    95    22.0   0.635  0.806 0.0600   2.63 2.19e-3
## 10 Merc 280   19.2  3.44   123    20.0   0.562 -0.779 0.0469   2.63 1.55e-3
## #  with 22 more rows, and 1 more variable: .std.resid <dbl>
…
mtcars_mis <- mtcars
mtcars_mis$wt[sample(nrow(mtcars), 6)] <- NA
mtcars_mis$hp[sample(nrow(mtcars), 6)] <- NA

sum(is.na(mtcars_mis$wt))

## [1] 6

library(recipes)
recipe(mpg ~ wt + hp, data = mtcars_mis) %>%
  step_meanimpute(all_predictors()) %>%
  prep() %>%
  juice()

## # A tibble: 32 x 3
##       wt    hp   mpg
##    <dbl> <dbl> <dbl>
##  1  2.62  110   21  
##  2  2.88  110   21  
##  3  2.32  154.  22.8
##  4  3.34  110   21.4
##  5  3.44  175   18.7
##  6  3.46  105   18.1
##  7  3.57  245   14.3
##  8  3.19   62   24.4
##  9  3.15   95   22.8
## 10  3.44  154.  19.2
## #  with 22 more rows
…
Scale

Sometime we have predictors at totally different scales, it might be a good idea to scale them up before sending them directly into the model. In this way, we can make sure different factors can be weighted on the same level when the model gets constructed. Again, the recipes package can be very helpful here.

scale_recipe <- recipe(mpg ~ wt + hp, data = mtcars) %>%
  step_center(all_predictors()) %>%
  step_scale(all_predictors()) %>%
  prep() 

juice(scale_recipe)

## # A tibble: 32 x 3
##          wt     hp   mpg
##       <dbl>  <dbl> <dbl>
##  1 -0.610   -0.535  21  
##  2 -0.350   -0.535  21  
##  3 -0.917   -0.783  22.8
##  4 -0.00230 -0.535  21.4
##  5  0.228    0.413  18.7
##  6  0.248   -0.608  18.1
##  7  0.361    1.43   14.3
##  8 -0.0278  -1.24   24.4
##  9 -0.0687  -0.754  22.8
## 10  0.228   -0.345  19.2
## #  with 22 more rows
…
